{
  "type": "service_account",
  "project_id": "orphanallocation",
  "private_key_id": "70fffa1f798b68da7aa8536a0dee3f3c3cecec5e",
  "private_key": "-----BEGIN PRIVATE KEY-----\nMIIEvgIBADANBgkqhkiG9w0BAQEFAASCBKgwggSkAgEAAoIBAQDbE/FvInHCWkk0\n7PD521fxZhfzeOfrz3ZyaE5H17wHSVGvyYS7Sz/Fb++QcxZZjjb0/zB0wpSLhwJE\noDFYtAte26AfKIv8DKyQE53yuO/cmR+Rn2P5uGRpbvQQ1jv8oMzz0FS8g9mfubL9\nqvmDw++Yr+joOveqa4UfMPR9QOCIfCay4vdf1DKSD46i3r23LV2J9QlgQyFlWnoV\n9cNXFVPlWwGUgssBtFw/e1EB+Tm1hm8SQyf+xptqwfHQOeBYlKcwlrcwE2hB42yq\n+cO7qLygeXtuVZgr3SZohcbwnlO0d1lWHls1SRkB/hz7TxwvE3f6A/4AhIJDAdk7\nOmmlzyWZAgMBAAECggEAARhC6xrBdcasufp7I8yAToEDmqBejFOflGfICFzgICsy\nIM5Bfwwbt/lcuZyRnoXy6VuDGvpD8sSMctpYFMjli6ZOUQmLVYmcrSWj8uwQqsoL\nGdexkLRmsA4xYwonB5aoH4nJep2wDzfG2LSrhYiLoHg0kkCFL1FVO3grqJqT5Kqz\nyZz7J2j7beJhce89H4tfUp+zsfrSkHTuFyLWeYwGlgLej83Tp2F8at7Bpa+Bm5Pb\nC08C6XCBIgPtu421oKIKLvdxa6nANQCY/wGYAtKddNNcZGqS0bqzXRYF1tG5NNW2\nf6TEawLzMDVURWnKXFaXduUPdULQo127XtGLtS8w7wKBgQD8nwIQ+odzu9LFf6CE\nk88bAeub5XJNwAo2UmOvGiC7n3icCTbDPTie5s8na69S2GTb08pL3Ag/T0PGPu0g\nLOkxxeNKam1yYTSKeCaMdy1epHEGT23n1v3NwKxR5VyQbL7g7vffijcEs6s8fhxA\nHUvTgtB8y28BoyL75HbaP6lhAwKBgQDeAhSsPuQgQqYOEecFU3Hn3AxOEg6Lg1Ce\nYxbgvMJ2ocQ+tyh/M8NrxfjA4yoDuGu9U4i2Qz+r0r+jLa5Rr6SRKVTuDpnyKYgx\nESR/P01rtdMiC8fYvf4mZ3Mdno303wnlKyTfHUyMj5SN1RblWVc8Hz4sJNicO4a9\npDc6aC5GMwKBgQCtI3nyExME8kT6EYf9daSrePx3Q6G8whL9uigSGdE3ZovuPa5n\nz6zf04dFGFv4ZtFxjM2Igoywf24PEI/Kzp0g/OTT2u+aRh8RjFm3SfMxe3jvfz7v\nd/1JqHUySAXSAoYsefwvHHaq5U1GT5SjKLEQjQbBkVhKgfn3NFV1Lc6z6wKBgGpL\nML6vdeYEQyElbSjdpQHQF4whlRkzDBxpcQC1H55RIXatlxQgIoatSMaBfRI+8Ea7\ngg9R72BDDUIBkx7FK9PcqC86inapb+2eOY07L8RMUARTA6JAhTi5+yHJUkpVp5Uz\nrPmuO4JpFEU8KzQwLFY61zenhJZ44bBWuaKbUtyFAoGBAMrYdrGBnPT7CCozqKSi\n+hDAPW2i7bB8qZoxUsA5J2Uy8qfKJXKkZzp7PF1lxLIq3tmyD5rK+/+fCdRwRWKe\n+z5qgrwn3IIP22R8nrBJTBrVgrWJ+WvCKIQMkis+7YNTmD32Cs4qzNZ/KFqj3Ct7\nud2M4rxlEPemcSef325tv6e5\n-----END PRIVATE KEY-----\n",
  "client_email": "firebase-adminsdk-s1rcr@orphanallocation.iam.gserviceaccount.com",
  "client_id": "112736384982991461946",
  "auth_uri": "https://accounts.google.com/o/oauth2/auth",
  "token_uri": "https://accounts.google.com/o/oauth2/token",
  "auth_provider_x509_cert_url": "https://www.googleapis.com/oauth2/v1/certs",
  "client_x509_cert_url": "https://www.googleapis.com/robot/v1/metadata/x509/firebase-adminsdk-s1rcr%40orphanallocation.iam.gserviceaccount.com"
}
