{
    "dev": {
        "app_function": "resources.app",
        "aws_region": "us-east-2",
        "profile_name": "default",
        "project_name": "s3_uploader",
        "runtime": "python3.6",
        "s3_bucket": "document-uploader",
        "remote_env": "s3://metal-network-config/config.json",
        "timeout_seconds": 300,
        "log_level": "INFO",
        // "vpc_config": {
        //     "SubnetIds": [ "subnet-4b674423" ],
        //     "SecurityGroupIds": [ "sg-0a49f684b969452cb" ]
        // }
    }
}